[
  {
    "pk": 1,
    "model": "auth.myuser",
    "fields": {
      "first_name": "Super",
      "last_name": "User",
      "is_active": true,
      "is_superuser": true,
      "is_staff": true,
      "last_login": "2015-09-25T13:38:08.326Z",
      "groups": [],
      "user_permissions": [],
      "password": "pbkdf2_sha256$12000$fkRxBk1w5vDW$ngAMqJ5F/E8ThlkYMLf3dd2Sm1T+OQcW0L6O3itV0I4=",
      "email": "m@superuser.com",
      "date_joined": "2015-09-25T08:23:21.558Z"
    }
  },
  {
    "pk": 2,
    "model": "auth.myuser",
    "fields": {
      "first_name": "Normal",
      "last_name": "User",
      "is_active": true,
      "is_superuser": false,
      "is_staff": false,
      "last_login": "2015-09-25T13:38:08.326Z",
      "groups": [],
      "user_permissions": [],
      "password": "pbkdf2_sha256$12000$fkRxBk1w5vDW$ngAMqJ5F/E8ThlkYMLf3dd2Sm1T+OQcW0L6O3itV0I4=",
      "email": "m@user.com",
      "date_joined": "2015-09-25T08:23:21.558Z"
    }
  }
]